\relax 
\@writefile{toc}{\contentsline {section}{\numberline {I}Experimental Setup}{1}}
\@writefile{lot}{\contentsline {table}{\numberline {I}{\ignorespaces Performance Test Results}}{1}}
\newlabel{tbl:perfTestResults}{{I}{1}}
\@writefile{toc}{\contentsline {section}{\numberline {II}Results}{1}}
\@writefile{toc}{\contentsline {subsection}{\numberline {\unhbox \voidb@x \hbox {II-A}}Thread Test}{1}}
\newlabel{fig:perfThreadGraph}{{\unhbox \voidb@x \hbox {II-A}}{2}}
\@writefile{lof}{\contentsline {figure}{\numberline {1}{\ignorespaces Elapsed Time vs. Number of Threads}}{2}}
\@writefile{toc}{\contentsline {subsection}{\numberline {\unhbox \voidb@x \hbox {II-B}}Order Test}{2}}
\newlabel{fig:perfOrderGraph}{{\unhbox \voidb@x \hbox {II-B}}{2}}
\@writefile{lof}{\contentsline {figure}{\numberline {2}{\ignorespaces Elapsed Time vs. Order}}{2}}
\@writefile{toc}{\contentsline {subsection}{\numberline {\unhbox \voidb@x \hbox {II-C}}Range Test}{2}}
\newlabel{fig:perfRangeGraph}{{\unhbox \voidb@x \hbox {II-C}}{2}}
\@writefile{lof}{\contentsline {figure}{\numberline {3}{\ignorespaces Elapsed Time vs. Maximum Range}}{2}}
\@writefile{toc}{\contentsline {section}{\numberline {III}Conclusion}{2}}
